<?xml version="1.0" encoding="UTF-8"?>
<session version="1.0">
<refactoring accessors="true" comment="Delete element from project &apos;study&apos;&#x0D;&#x0A;- Original project: &apos;study&apos;&#x0D;&#x0A;- Original element: &apos;study.Day.java&apos;" description="Delete element" element1="/src&lt;study{Day.java" elements="1" flags="589830" id="org.eclipse.jdt.ui.delete" resources="0" stamp="1700728036135" subPackages="false" version="1.0"/>
</session>